# Blender MTL File: 'None'
# Material Count: 1

newmtl MAT_Vest.001
Ns 19.607843
Ka 1.000000 1.000000 1.000000
Kd 0.470588 0.470588 0.470588
Ks 0.000000 0.000000 0.000000
Ke 0.000000 0.000000 0.000000
Ni 1.000000
d 1.000000
illum 1
map_Kd https://cdn.glitch.com/f8e9177f-ca35-45d8-8dfb-e3f0d659573f%2Fvest_DIF.jpg?1534226970284